0	3
1	1286
10	929
100	145
1000	131
1001	3
1002	0
1003	0
1004	0
1009	0
101	1
1010	5
1018	0
102	1
1023	1
103	0
1034	1
104	0
1041	0
1045	0
1046	0
105	1
1050	1
1057	0
106	1
107	0
1072	2
108	2
1097	0
11	57
110	5
1100	24
1101	0
1102	0
1105	0
1109	0
1110	0
1111	1
1114	0
1115	0
112	0
1125	1
1126	2
113	1
1133	0
1134	0
114	3
1153	0
1154	0
116	1
1165	0
1166	0
1179	3
118	0
1185	0
119	0
1190	1
12	145
120	9
1200	26
1207	0
1211	0
1214	3
1218	2
1220	0
1224	0
1225	2
1226	0
123	0
1230	0
1237	0
1245	0
125	5
1260	0
1265	0
127	0
1285	0
1288	2
1292	0
1294	0
1295	0
13	45
130	0
1300	12
131	0
1310	0
1311	0
132	0
1324	0
1337	0
1343	0
135	1
1350	0
1356	0
136	0
137	0
1376	1
138	0
14	49
140	0
1400	6
1407	0
1410	0
1428	0
144	3
145	0
1450	1
1451	2
146	0
1461	0
147	1
1470	0
1477	0
1484	0
1485	0
1490	0
1499	0
15	265
150	25
1500	74
1501	63
1502	3
1503	7
1505	2
1508	0
1509	0
1510	41
1516	0
1525	0
1535	0
1536	0
154	0
1540	2
1543	0
1544	0
1550	1
1554	0
1555	2
156	2
1560	0
1563	1
1567	3
157	0
1574	1
158	1
1587	0
159	0
1595	0
1599	0
16	33
160	2
1600	14
161	1
1618	0
1623	0
163	0
1645	0
165	4
1650	1
1656	0
166	1
1662	0
1674	0
168	1
1680	2
1682	0
1684	0
1694	0
17	29
1700	6
1706	0
1709	0
171	0
1712	0
1720	0
1721	0
1745	0
175	0
1751	1
1753	0
1755	0
176	0
1769	0
177	0
1770	0
1780	0
1784	0
1785	1
18	53
180	2
1800	12
1802	0
1808	0
181	0
1813	0
1818	0
1820	0
1821	0
1823	0
184	1
1845	0
1848	0
185	0
1850	0
1858	1
1869	0
1875	3
1880	0
1881	0
1889	1
189	0
1890	0
1898	0
1899	0
19	41
190	2
1900	9
1905	0
1906	0
1912	0
1919	0
1920	0
1925	0
1930	0
1937	0
1938	0
1940	0
1950	0
1963	1
1968	0
197	0
1981	0
1985	0
1986	1
1997	0
1998	0
1999	1
2	380
20	146
200	39
2000	102
2001	0
201	0
2015	0
2020	0
2023	0
2025	0
2036	0
2038	0
2054	3
2057	0
206	0
2062	0
2065	1
2068	0
2078	0
2086	0
2090	0
2093	1
2094	0
21	16
210	1
2100	6
2104	0
2110	1
2117	0
2120	0
2127	3
2132	1
2136	0
2139	0
2145	0
215	0
2150	3
2151	0
2154	0
2169	0
2175	0
2180	0
2181	1
2188	0
2190	0
2191	0
2193	0
22	28
220	0
2200	11
2201	0
2213	0
2216	2
2217	0
222	0
223	0
2248	0
225	6
2250	2
2257	0
2258	0
226	0
2260	0
2266	0
2289	0
229	0
2295	0
2298	0
23	22
230	1
2300	9
2307	0
2325	0
2328	0
2333	1
2334	0
2349	0
235	0
2354	0
2360	0
2367	2
2377	0
2379	0
2380	0
239	1
2391	0
2397	0
24	25
240	1
2400	3
2427	2
2431	0
244	0
2440	0
2444	0
2445	0
245	0
2450	1
2456	0
246	0
2460	0
2463	0
247	1
2490	1
2492	0
2494	0
25	84
250	16
2500	65
2501	0
2510	0
2511	0
2512	0
2520	0
2521	0
2523	0
2540	0
2546	0
2547	0
2548	0
2552	3
256	0
2560	1
2565	3
2566	0
257	0
2573	0
2578	0
2587	0
2590	0
2595	0
26	15
260	1
2600	7
2604	0
2606	0
261	0
2610	0
2612	3
2615	0
2619	0
2625	0
2627	0
2630	0
2633	0
2634	0
265	1
2650	0
2651	0
266	0
2662	1
2669	0
268	1
2680	0
2684	0
2690	0
2693	0
27	8
2700	13
2703	0
2708	1
2724	1
274	0
2742	0
2747	0
2750	3
2753	0
2758	0
2769	0
2770	0
2786	0
2788	0
2790	1
2793	1
28	15
280	0
2800	7
2810	0
283	0
2830	1
285	1
2850	1
2856	0
2859	0
286	0
2870	1
2871	0
288	0
2883	1
2884	0
2890	1
2894	0
29	8
2900	9
2908	0
2919	0
292	0
2923	1
2925	1
2929	0
2932	0
294	0
2941	1
2950	0
2960	0
2962	1
2964	0
2967	1
2968	0
2975	0
298	0
2980	2
2981	0
2986	1
2987	0
2988	0
2990	1
2994	0
2999	3
3	172
30	49
300	16
3000	104
3001	0
3011	0
3015	1
3018	0
3020	0
3021	0
3023	0
3026	0
3036	0
3046	0
305	0
3054	0
3060	0
307	0
3070	1
3077	0
3082	0
3086	0
3093	0
31	7
310	0
3100	2
3101	0
3104	0
3119	0
3120	0
3136	0
3138	0
3150	1
3157	0
3164	0
3184	0
3189	0
3190	0
32	8
320	1
3200	12
3203	0
3204	0
3210	0
3226	0
3230	0
3231	2
3245	0
3250	3
3252	1
3256	0
3257	0
3259	0
326	0
3261	0
3262	0
3270	0
3279	0
3282	1
329	0
3290	0
3291	0
33	4
330	0
3300	5
3302	0
3309	0
331	0
3310	0
3313	0
3314	0
332	0
3334	0
3335	2
3338	0
3339	0
334	0
3343	2
335	0
3350	4
3352	0
3361	2
3365	0
3375	1
3380	0
3383	3
3384	0
3387	0
3388	0
34	4
3400	8
3405	0
3406	0
3416	0
3421	0
3429	0
3434	0
344	0
3441	0
3445	0
3450	2
3453	0
3455	1
3457	0
3458	0
3466	0
3488	0
35	29
350	5
3500	40
3502	1
3507	0
3510	0
3520	0
3521	0
3527	0
3529	0
3532	0
3543	0
3544	0
3551	0
3560	1
3562	0
3568	3
357	0
3570	0
3580	0
3581	0
3586	0
3590	0
3595	0
3596	0
36	12
360	1
3600	6
3610	0
3612	0
3614	0
362	3
3625	0
3626	0
3630	0
364	0
3649	0
3650	0
3654	0
3657	1
3662	0
3664	1
3666	0
3670	0
3675	0
3677	0
3679	0
3680	1
3685	0
369	0
3691	1
3698	0
37	7
3700	6
3710	0
3720	1
3722	0
3723	0
3735	0
3736	2
3739	1
3740	1
3750	0
3765	0
3772	0
3777	0
3780	0
3782	0
3783	0
3789	0
38	5
380	0
3800	9
3822	0
3825	0
383	2
3835	0
3838	2
3841	0
3842	0
3850	2
3855	0
3868	0
387	0
3872	0
3873	1
3877	0
3878	0
3880	0
3884	0
3885	0
3890	0
3891	2
3892	0
3895	1
3896	0
39	7
3900	12
3903	0
3905	0
3906	1
3910	0
3918	0
3920	0
3932	0
3936	2
3939	0
3945	0
3946	0
3948	0
395	0
3950	0
3952	0
3953	0
3954	0
396	0
3966	1
3969	0
3972	2
3974	0
3976	3
3980	0
3982	0
3985	0
3986	0
3990	1
4	282
40	14
400	35
4000	115
4001	2
4002	0
4004	0
4010	1
4014	0
4015	0
4020	1
4022	0
4024	0
4026	0
4032	0
4034	0
4038	0
4040	1
4045	0
4048	0
4050	4
4058	0
4059	1
4060	1
4068	0
4070	0
4074	0
4080	1
4081	0
4083	0
4088	0
4090	0
4091	0
41	4
4100	27
4103	1
4105	1
4116	0
4117	0
4120	1
4121	0
4122	0
4128	1
4129	0
4130	1
4132	0
4137	0
4138	0
4142	2
4146	1
4149	0
4150	4
4154	0
4160	1
4166	0
4168	0
4180	2
4184	0
4185	0
4187	0
4190	0
42	10
420	0
4200	16
4201	0
4203	1
4204	0
421	0
4212	0
4216	0
4217	0
4222	1
4224	1
4227	0
4229	0
4234	0
4236	0
4238	0
4239	0
4240	1
4246	0
4250	4
4251	0
4252	0
4253	0
4257	0
4259	0
4261	0
4264	0
4266	2
4272	0
4280	0
4283	0
4287	0
4289	0
4290	0
4291	1
4296	2
4298	0
43	4
4300	15
4303	0
4313	1
4316	0
4325	3
4327	0
4329	1
4330	0
4345	0
435	1
4358	0
4365	0
4378	0
4381	0
4387	0
4392	1
4393	0
44	2
440	0
4400	15
4405	0
4406	0
4410	7
4416	0
4419	5
4420	1
4423	0
4428	0
443	0
4432	0
4434	0
4436	1
4438	0
4441	0
4442	0
4443	2
4444	1
4447	0
4450	2
4452	0
4460	0
4466	0
4470	0
4471	0
4475	0
4477	0
4478	0
4479	2
4481	0
4482	1
4483	1
4494	0
4495	0
4497	0
45	14
450	4
4500	56
4503	3
4510	1
4511	0
4515	1
4517	0
452	1
4523	0
4524	1
4525	0
4526	0
4531	0
4533	0
4537	0
4540	0
4542	0
4545	0
4550	2
4554	0
4555	1
4558	0
456	1
4561	0
4562	1
4566	0
4569	0
4575	2
4585	0
4586	0
4589	0
4592	1
4596	0
46	12
4600	6
4603	1
4604	1
4605	0
4608	2
461	0
4615	2
4618	0
4619	0
4620	0
4630	1
4631	1
4641	0
4645	0
4647	0
4650	0
4651	0
4655	0
4656	0
4658	1
4659	0
4667	0
4669	0
467	0
4670	0
4671	0
4673	0
4683	1
4686	0
469	0
4691	1
47	1
4700	4
4707	0
4711	0
4712	0
4715	2
4722	0
4733	0
4739	0
4742	0
4743	0
4745	0
475	0
4755	0
4766	1
4767	0
4778	0
4784	0
4785	1
4787	0
4790	0
4791	0
4796	0
4797	0
48	2
480	0
4800	12
4801	0
4804	0
4809	0
4816	0
4826	2
484	0
4840	0
4843	0
4850	2
4851	0
4855	0
4856	0
4866	0
4867	0
4868	0
4870	0
4872	0
4890	0
49	0
4900	7
4903	1
4905	0
4906	0
4910	0
4912	0
4914	0
4915	1
4916	1
4921	0
4923	0
4925	0
4928	0
4935	0
4937	0
4942	1
4944	0
4947	0
4957	0
4958	2
4963	0
4965	0
4967	0
4970	0
4971	1
4972	0
4974	0
4975	0
4976	1
4980	0
4983	0
4985	1
4988	0
4990	1
4995	0
4996	1
4999	0
5	446
50	167
500	73
5000	199
5001	0
5008	0
5010	2
5014	2
5015	0
5016	0
5019	0
5020	0
5021	1
5024	0
5025	0
5029	0
5033	0
5037	0
5040	1
5043	1
5050	0
5053	2
5056	0
5069	0
5071	0
5078	0
5079	0
5082	0
5085	0
5090	2
5099	2
51	1
5100	8
5102	0
5103	0
5104	1
5108	0
5111	0
5117	0
5120	0
5124	0
5129	0
5130	1
5133	0
5134	0
5137	0
5139	0
5142	0
5156	0
5158	0
5166	0
5168	0
5170	2
5173	0
5175	0
5180	0
5181	0
5182	0
5184	0
5188	0
5195	2
5196	0
52	0
5200	20
5213	0
5214	0
5215	0
5221	0
5225	0
5230	0
5237	0
5242	1
5247	1
5248	0
5250	1
5255	0
5258	0
5261	0
5264	0
5267	0
527	0
5281	0
5284	3
5288	0
5296	0
53	2
530	0
5300	14
5305	1
5306	0
5311	0
5317	0
5320	0
5322	0
5326	0
5328	0
5330	0
5341	0
5344	0
5352	0
5354	0
5355	0
5357	0
5360	0
5366	0
5369	0
5372	0
5373	0
5377	1
5379	0
538	0
5382	1
5385	3
5388	0
5390	0
5392	0
5399	0
54	2
5400	7
5402	1
5403	0
5406	0
541	0
5413	1
5415	0
5420	0
5425	0
5426	0
5430	0
5431	0
5432	0
5435	0
5441	2
5446	0
5448	0
5450	0
5455	0
5456	1
5460	1
5462	0
5471	0
5472	1
5473	1
5475	0
5478	0
5480	0
5485	1
5487	0
5498	0
55	9
550	2
5500	44
5503	1
5508	0
5511	0
5512	1
5517	0
5518	0
552	1
5521	0
5523	0
5531	0
5535	0
5546	0
5547	0
5553	0
5558	0
5559	0
5560	0
5565	0
5570	0
5574	0
5575	0
5578	0
5580	3
5581	0
5587	1
5590	3
5596	0
5599	3
56	6
560	0
5600	6
5603	0
5607	0
5608	0
5610	0
5611	0
5613	1
5616	0
5619	0
5622	0
5629	0
5631	0
5633	0
5635	0
5638	0
5641	0
5642	0
5646	0
5647	0
5650	2
5657	0
5659	0
5660	0
5667	0
5672	0
5688	0
5689	0
5695	0
57	4
570	0
5700	12
5705	0
5710	1
5714	0
5715	0
5720	0
5722	0
5726	0
573	0
5730	0
5732	0
5735	0
5738	0
5746	0
5750	0
5753	0
5756	0
5757	0
5763	0
5769	0
5770	0
5773	0
5775	0
5779	0
5783	0
5784	1
5787	0
5791	0
5794	0
5796	0
5797	0
5799	1
58	0
5800	10
5804	0
5806	0
5810	0
5811	3
5823	0
5825	0
5831	0
5840	0
5843	1
5845	0
5847	0
585	3
5853	0
5856	0
5858	2
586	0
5860	0
5864	1
5867	1
5868	0
5871	0
5872	1
5874	1
5879	0
5884	1
5885	0
5886	0
5887	0
5896	2
59	4
5900	7
5904	0
5905	0
5909	0
5917	0
5918	2
5927	0
5928	0
593	1
5930	0
5938	0
5940	0
5945	0
5950	1
5956	0
5967	0
5971	0
5974	0
5977	0
598	0
5980	0
5984	1
599	0
5990	0
5995	1
5996	0
5999	2
6	124
60	12
600	12
6000	93
6001	0
6003	0
6004	0
6006	0
6009	1
6010	0
6011	0
6012	0
6015	0
6019	0
6020	0
6021	1
6025	0
6030	0
6032	1
6033	0
6036	0
6040	0
6043	0
6047	0
6055	0
6056	0
6071	0
6072	1
6076	0
6077	0
6078	4
6080	0
6083	0
6084	1
6087	0
6089	1
6090	0
6093	0
6095	0
6096	1
6099	0
61	1
6100	4
6101	0
6108	0
6116	1
6117	0
6120	2
6121	0
6124	0
6126	1
6137	0
6141	0
6145	0
6147	2
6148	0
615	0
6150	0
6151	0
6153	0
6159	1
6167	0
617	0
6175	0
6181	0
6185	0
6190	0
6192	0
6194	2
6195	2
6196	0
6198	1
6199	0
62	2
620	0
6200	14
6207	0
6209	2
6215	0
6217	1
6220	0
6225	0
6229	0
623	0
6230	0
6232	0
6242	0
6244	0
6246	1
6247	0
625	0
6250	1
6252	0
6254	1
6255	0
626	0
6260	0
6261	0
6262	0
6263	0
6265	1
6267	1
6270	0
6274	0
6276	1
6277	0
6282	0
6289	1
6290	0
6293	1
6294	0
6297	4
6298	1
630	0
6300	6
6303	1
6308	0
6309	1
6314	1
6317	1
6321	0
6323	0
6325	0
6328	0
6332	0
6335	1
6336	1
6340	0
6342	1
6344	1
6345	0
6346	2
6347	1
635	2
6350	2
6351	0
6360	0
6364	0
6366	0
6369	0
6372	0
6374	2
6378	0
6382	1
6384	0
6387	0
6388	1
6395	1
6399	0
64	1
640	4
6400	7
6402	0
6405	0
6406	0
6410	10
6415	1
6417	0
6420	3
6421	0
6423	1
6429	0
6431	1
6432	1
6435	0
6438	0
6441	0
6442	0
6443	0
6445	0
6446	0
6447	0
6451	0
6453	1
6457	0
6458	1
646	0
6460	1
6461	0
6462	0
6463	0
6464	1
6465	0
6466	0
6467	0
6468	0
6470	2
6474	0
6475	0
6480	0
6481	2
6482	0
6484	0
6485	2
6487	0
6489	1
6490	4
6498	3
6499	0
65	1
650	3
6500	50
6508	0
651	0
6510	0
6518	0
6520	0
6521	0
6525	0
6528	0
6529	2
6530	0
6531	0
6532	0
6533	0
6534	0
6535	1
6536	0
6539	1
6541	0
6542	0
6546	0
6549	2
6550	0
6556	0
6559	1
6560	1
6562	1
6564	0
6571	0
6574	0
6575	0
6577	0
658	2
6580	0
6584	0
6586	0
6598	0
66	1
6600	10
6604	1
6606	0
6607	3
6609	0
6614	0
6625	0
6626	0
6627	0
6628	0
6629	1
6630	1
6632	0
6633	1
6634	0
6639	0
6640	1
6642	0
6644	0
6645	0
6647	0
6650	2
6654	0
6655	5
6657	1
6665	2
6666	0
6667	0
6676	1
6678	0
6682	0
6684	2
6685	0
6687	0
6688	2
6689	0
6690	0
6691	0
6693	0
6696	0
67	2
670	0
6700	8
6703	0
6704	0
6705	2
6707	2
6708	1
6709	1
6710	0
6712	1
6713	0
6714	3
6716	2
6717	0
6718	0
6719	1
6720	0
6722	0
6726	0
6727	0
6730	2
6732	1
6736	0
6737	0
6743	0
6744	1
6745	0
6746	0
6747	0
6749	0
6751	0
6752	0
6753	0
6754	0
6755	2
6757	0
6758	0
6759	3
6761	1
6762	0
6766	1
6770	0
6771	1
6772	0
6773	0
6777	0
6781	0
6782	2
6783	0
6784	0
6785	0
6787	0
6788	1
6789	0
6790	2
6792	1
6793	0
6794	0
6798	0
68	1
680	1
6800	26
6801	0
6802	2
6804	0
6805	2
6806	0
6809	1
6815	0
6816	0
6820	0
6830	3
6831	0
6837	1
6839	0
6846	0
685	0
6850	2
6853	0
6854	1
6857	0
6859	0
6863	1
6864	0
6865	1
6867	0
6868	0
6869	1
6870	0
6871	0
6875	2
6881	0
6885	0
6890	0
6893	0
6898	1
69	3
6900	18
6901	0
6902	0
6903	0
6906	0
6909	1
6917	0
692	0
6920	0
6923	0
6925	0
6930	0
6937	0
6938	0
6943	0
6944	0
6945	0
6947	0
6949	2
6950	3
6958	1
696	0
6963	0
6965	0
6967	0
6970	2
6973	1
6974	0
6976	0
6977	0
6978	0
6982	0
6983	1
7	124
70	12
700	6
7000	108
7005	2
7006	0
701	0
7011	1
7014	2
7016	0
7024	1
7027	1
7029	0
703	0
7030	1
7032	0
7034	0
7035	0
7038	0
7040	0
7045	1
7048	0
7050	4
7056	1
7057	1
7061	0
7062	1
7064	0
7067	0
7075	1
7077	1
7079	0
7080	0
7083	0
7084	0
7086	0
7087	0
7093	0
7095	1
7098	0
71	0
7100	5
7105	2
7107	0
7110	0
7111	0
7113	0
7116	0
7118	1
7125	0
7129	0
7134	0
7138	0
7144	0
7145	0
715	0
7150	0
7157	1
7158	1
7160	0
7161	0
7162	1
7165	0
7168	1
7169	1
7170	0
7176	0
7179	0
7180	1
7181	1
7183	1
7185	0
7188	0
7190	0
7195	0
7196	0
72	1
7200	17
7203	0
7204	0
7206	0
7207	0
7209	0
7211	1
7213	0
7215	0
7222	0
7223	2
7225	0
7227	0
7235	0
7241	0
7246	0
7247	0
725	1
7250	2
7251	1
7252	0
7253	2
7255	0
7260	0
7261	0
7264	1
7270	0
7271	2
7275	0
7276	0
7278	0
7280	0
7281	0
7288	0
7289	0
7292	0
7299	0
7300	7
7301	0
7302	0
7304	0
7308	1
7309	0
7311	0
7317	1
7318	1
7320	0
7325	1
7326	1
7332	4
7334	0
7335	0
7336	0
7339	0
7346	1
7349	0
7350	2
7355	0
7357	0
7359	0
7362	1
7366	2
7367	0
7368	0
7369	0
7370	0
7374	0
7375	0
7377	2
7382	1
7386	0
7390	0
7398	0
74	1
740	0
7400	8
7403	0
7407	0
7416	0
7422	0
7423	0
7424	0
7426	0
7427	0
7428	0
7431	2
7432	0
7433	0
7434	0
7435	1
7438	1
7439	0
7442	0
7445	0
7449	0
7450	0
7453	0
7455	0
7456	0
7458	0
7464	0
7466	1
7468	5
747	0
7473	1
7474	2
7477	1
7483	0
7485	3
7486	1
7487	0
749	0
7490	2
7492	0
7495	1
7497	0
7499	1
75	6
750	4
7500	68
7501	0
7504	1
7505	0
7506	2
7520	0
7522	1
7526	0
7530	0
7532	0
7533	0
7534	0
7535	0
7536	0
7537	0
7540	0
7541	0
7544	1
7545	0
7547	2
7548	0
7549	0
7550	6
7551	1
7556	1
7557	3
7558	0
756	0
7562	0
7563	0
7565	0
7567	0
7569	0
7570	0
7573	1
7576	0
7577	0
7579	1
758	0
7581	0
7583	0
7586	0
7587	2
7588	3
7589	0
7590	2
7591	0
7593	0
7599	0
7600	15
7602	0
7603	0
7605	0
7606	0
7608	1
7611	0
7619	0
7624	0
7628	0
7629	1
7630	0
7633	0
7634	0
7635	0
7636	0
7639	0
7640	0
7641	0
7642	0
7645	0
7649	1
7650	0
7652	0
7655	0
7656	0
7658	1
7660	3
7661	0
7670	2
7671	0
7673	0
7674	1
7675	0
7676	0
7677	0
7678	0
7683	0
7685	1
7686	1
7687	0
7689	0
7690	3
7691	0
7696	0
7697	0
77	0
7700	12
7706	1
7708	1
7710	1
7713	0
7715	0
7716	0
7717	4
7720	1
7721	0
7726	0
7730	2
7732	0
7734	0
7736	0
7739	1
7742	0
7745	0
7750	1
7751	2
7753	0
7756	1
7760	0
7763	0
7765	1
7769	0
7773	0
7774	0
7780	2
7785	0
7786	0
7789	0
7790	0
7792	0
7795	1
7796	1
7797	1
7800	14
7802	0
7804	0
7809	0
7810	0
7812	0
7813	0
7814	0
7818	0
7821	0
7823	0
7824	0
7825	0
7826	1
7827	0
7832	0
7837	0
7840	0
7841	1
7844	1
7848	1
7849	0
7850	3
7851	0
7853	0
7854	0
7858	1
7860	6
7861	3
7863	3
7865	0
7866	2
7867	0
7868	1
787	0
7870	0
7872	0
7878	0
7886	0
7890	1
7893	0
7899	0
79	1
7900	17
7903	0
7909	2
7911	0
7912	0
7915	1
7917	1
7919	0
7920	0
7923	0
7924	1
7928	1
7929	1
7934	0
7936	0
7940	0
7941	0
7942	1
7943	1
7945	2
7946	2
7949	1
7950	2
7952	0
7953	0
7955	0
7956	0
7958	0
7964	0
7965	2
7966	0
7970	0
7975	0
7978	2
7982	1
7984	1
7985	1
7987	4
7989	3
7990	1
7992	3
7994	0
7995	0
7998	0
8	159
80	11
800	11
8000	139
8001	1
8003	1
8004	0
8006	1
8007	0
8008	0
8011	0
8012	2
8013	0
8016	1
8019	1
8020	0
8023	2
8026	0
8027	0
8029	1
8030	0
8031	0
8032	0
8034	0
8041	0
8043	0
8050	0
8054	2
8055	0
8057	0
8058	0
8060	0
8063	0
8066	1
8068	0
8069	2
8070	0
8077	1
8080	2
8081	0
8083	0
8086	2
8088	0
8091	0
8092	1
8095	0
8097	0
81	0
8100	14
8102	0
8103	0
8105	2
8110	0
8111	2
8115	2
8116	0
8118	0
8119	0
8121	0
8123	1
8124	0
8127	2
8132	1
8135	1
8137	0
8141	0
8142	2
8143	0
8144	0
8145	2
8147	0
8148	0
8150	2
8151	1
8152	1
8153	3
8158	0
8159	3
8161	1
8162	0
8165	0
8166	1
8168	1
8169	1
8172	0
8173	0
8174	0
8175	1
8178	1
8181	1
8186	0
8189	2
819	0
8190	0
8196	0
8198	5
82	0
820	0
8200	12
8202	0
8204	0
8205	0
8206	3
8210	2
8213	0
8215	3
8218	0
8220	1
8221	0
8222	0
8223	1
8224	0
8225	0
8226	2
823	0
8230	1
8233	0
8234	0
8238	0
8239	1
8242	1
8244	0
8246	3
8247	0
8249	0
8250	4
8251	0
8253	1
8255	0
8258	3
8259	1
8260	1
8262	0
8264	0
8271	0
8272	0
8274	0
8275	2
8278	0
8280	0
8281	0
8285	2
8288	0
8290	0
8291	0
8293	4
8296	1
8298	1
8299	1
83	2
830	0
8300	8
8301	0
8303	0
8304	2
8306	0
8307	0
8308	1
8310	0
8311	0
8313	0
8314	1
8317	0
8318	0
8320	1
8321	1
8323	1
8324	1
8325	0
8326	2
8327	0
8331	0
8336	2
8338	2
8342	0
8344	1
8345	1
8346	0
8347	0
8349	0
8350	3
8363	0
8369	1
837	0
8370	1
8371	0
8378	2
8380	0
8381	0
8383	2
8384	1
8390	2
8391	0
8394	0
8395	0
8398	0
84	0
840	0
8400	12
8401	0
8403	1
8404	1
8407	0
8409	1
841	1
8410	2
8411	0
8413	0
8418	0
8420	1
8421	0
8423	0
8425	0
8427	0
8429	0
8430	1
8433	0
8435	0
844	1
8443	1
8446	1
8447	0
8449	0
845	0
8450	1
8452	1
8459	0
8462	1
8465	0
847	0
8479	0
8480	0
8482	0
8483	1
8487	0
8488	0
8493	2
8495	0
8496	0
8498	0
8499	0
85	3
850	6
8500	59
8503	1
8508	4
8510	1
8512	4
8514	0
8517	0
8519	0
8523	0
8525	0
8526	0
8527	0
8528	1
8536	0
8537	0
8540	1
8542	0
8544	0
8545	0
8547	1
8554	1
8555	2
8556	1
8558	0
8559	0
8560	0
8562	0
8563	0
8566	2
8567	0
8571	2
8573	0
8576	1
8579	0
8580	0
8583	0
8587	1
8597	0
8598	0
8599	0
86	1
8600	15
8602	0
8604	0
8605	1
861	0
8612	1
8619	0
8621	1
8622	0
8623	0
8625	0
8626	0
8632	1
8634	0
8639	0
8640	0
8644	1
8645	1
8647	0
8649	0
8650	0
8651	0
8652	0
8656	2
8658	3
8663	0
8665	0
8666	0
8667	0
8668	0
8674	0
8675	7
8676	0
8680	0
8683	0
8685	0
8686	4
8689	0
8695	0
8696	0
8698	0
8699	0
87	2
870	0
8700	14
8702	0
8703	0
8706	0
8708	2
8712	0
8717	0
8720	0
8721	0
8723	0
8727	0
8728	1
8729	0
8735	0
8736	0
8739	0
8741	0
8742	0
8745	0
8750	6
8752	0
8753	0
8758	0
8759	0
876	0
8762	1
8765	0
8766	0
8767	1
8769	0
8770	2
8773	1
8775	1
8779	0
878	0
8782	0
8784	0
8788	0
8790	0
8792	1
8797	1
88	0
8800	18
8802	1
8804	0
8809	0
8810	0
8814	1
8816	1
8817	0
8821	0
8823	0
8824	0
8827	0
8829	0
8830	0
8832	0
8833	1
8840	0
8841	1
8843	1
8845	0
8846	2
8849	0
885	0
8850	2
8851	0
8854	1
8856	0
8857	2
8859	0
8860	2
8861	1
8862	0
8864	0
8867	0
8868	1
8869	0
8870	0
8871	0
8876	1
888	1
8880	1
8881	0
8884	0
8885	1
8886	0
8887	0
8889	0
8890	4
8893	1
8894	0
8898	2
8899	0
89	1
890	0
8900	18
8905	0
8907	0
8912	0
8913	1
8915	0
8918	0
892	0
8922	0
8924	0
8926	1
8927	0
8930	0
8932	0
8936	0
8937	0
8938	0
8940	2
8947	0
8950	0
8951	1
8956	0
8957	1
8959	0
8960	1
8963	0
8964	3
8972	0
8974	3
8975	0
8980	0
8985	0
8987	0
8990	1
8993	0
8995	1
9	101
90	5
900	11
9000	122
9004	0
9006	0
9007	2
9009	0
9010	0
9014	1
9015	0
9016	0
9025	0
9027	1
9028	0
9031	1
9032	0
9040	0
9041	0
9046	0
9049	0
9051	2
9052	0
9053	0
9055	0
9058	4
9059	0
906	0
9061	1
9062	1
9064	0
9067	0
9069	1
9070	1
9071	2
9073	0
9074	1
9075	0
9078	3
9079	1
9080	0
9081	1
9085	0
9087	0
9088	1
9089	0
9090	1
9091	0
9092	0
9094	1
9095	0
9100	5
9102	0
9105	3
9107	2
9108	0
9109	1
9111	1
9112	0
9115	2
9118	0
9119	0
912	0
9120	0
9121	0
9122	0
9123	1
9125	0
9128	0
913	0
9130	1
9134	0
9137	0
9139	0
9140	1
9142	1
9144	0
9146	0
9148	2
9149	0
915	0
9150	0
9151	0
9152	0
9159	0
9161	2
9167	1
9170	0
9171	0
9172	0
9173	0
9175	0
9179	0
9180	0
9181	1
9182	1
9185	1
9188	0
9189	1
9190	2
9191	2
9194	0
9198	1
92	1
9200	14
9204	1
9205	0
9208	0
921	1
9210	2
9211	0
9212	0
9216	0
9219	0
9221	0
9222	1
9225	0
9226	0
9228	1
9229	0
9230	0
9231	3
9233	3
9239	0
9241	3
9245	3
9248	0
9249	0
9250	0
9252	0
9253	2
9254	1
9255	1
9257	0
926	0
9260	0
9263	1
9264	1
9267	0
9268	1
9269	0
9270	0
9271	1
9272	0
9274	0
9279	1
9280	2
9286	0
9288	0
9289	0
9290	1
9294	0
9295	1
9296	0
9297	0
9298	0
9299	1
930	0
9300	20
9302	0
9305	0
9306	1
9307	2
9309	1
9313	0
9319	0
9321	0
9323	1
9325	2
9330	0
9331	2
9332	0
9335	0
9336	0
9338	0
9339	2
9340	0
9341	1
9342	0
9346	2
9347	0
9348	0
9350	0
9352	0
9355	0
9357	0
9360	0
9361	0
9362	0
9364	2
9365	1
9366	0
9368	2
9369	0
9371	2
9373	0
9375	1
9376	2
9380	3
9382	0
9383	0
9388	0
9390	1
9392	0
9393	0
9394	1
9395	0
94	0
9400	14
9401	1
9402	0
9405	1
9407	2
9408	0
9411	2
9412	2
9417	0
9420	1
9421	0
9422	0
9423	1
9424	0
9425	0
9427	0
9429	0
9430	1
9431	1
9432	0
9433	0
9438	0
9439	0
9440	0
9443	0
9445	0
9446	3
9449	0
9450	2
9453	0
9454	0
9459	0
9460	1
9462	0
9463	0
9465	4
9470	1
9472	1
9474	0
9475	0
9476	0
9478	0
948	1
9481	2
9485	1
9486	0
9487	1
9489	0
9494	0
9499	0
95	4
950	1
9500	76
9501	0
9502	0
9503	0
9504	0
9505	1
9509	0
9511	1
9512	0
9513	0
9515	0
9516	0
9518	1
9520	0
9523	1
9526	1
9530	0
9533	2
9535	1
9537	0
9540	1
9542	0
9544	0
9545	4
9546	0
9548	0
9550	6
9554	1
9555	1
9558	0
9560	5
9562	0
9563	0
9565	3
9570	0
9572	1
9574	2
9576	0
9577	1
9580	0
9581	0
9583	1
9584	0
9586	0
9588	1
9589	1
9590	2
9591	0
9592	3
9593	0
9597	0
96	1
9600	14
9602	0
9605	1
9606	0
9607	0
9609	0
9614	1
9615	0
9618	0
9622	1
9623	0
9624	3
9625	1
9626	0
9627	0
9628	1
9631	0
9633	0
9634	0
9635	0
9640	0
9641	0
9645	0
9647	0
9648	0
9649	0
9650	6
9651	0
9652	0
9657	0
9660	3
9661	2
9663	0
9665	0
9668	2
9669	0
9670	1
9672	0
9681	0
9682	0
9685	2
9686	1
9688	0
9690	0
9691	0
9692	0
9694	2
9698	0
97	0
9700	14
9703	0
9704	0
9707	0
9712	1
9713	0
9714	0
9715	0
9717	0
9719	0
9720	0
9722	0
9723	1
9725	1
9727	0
9731	3
9732	0
9735	0
9739	0
9740	2
9741	0
9744	0
9745	2
9747	0
9750	1
9751	0
9755	0
9757	0
9758	0
9759	0
9762	2
9767	2
9768	1
9770	1
9771	2
9773	2
9776	0
9778	0
978	1
9781	0
9786	1
9788	3
9789	0
9793	0
98	3
980	1
9800	30
9804	1
9805	0
9809	2
9810	1
9811	2
9815	2
9819	2
982	0
9820	2
9823	1
9824	2
9825	0
9830	1
9832	1
9833	0
9834	0
9836	3
9837	0
9839	0
9840	1
9841	0
9843	0
9844	1
9846	0
985	3
9850	3
9854	0
9855	0
9856	0
9857	0
9859	1
9860	1
9865	0
9869	0
9870	2
9871	0
9872	3
9874	2
9875	0
9876	0
9877	0
9878	5
9880	0
9881	1
9882	0
9885	0
9887	2
9888	0
9889	0
99	5
990	0
9900	27
9903	1
9905	1
9906	1
9907	3
9908	0
9909	0
9910	2
9913	1
9917	1
9919	0
9920	0
9921	1
9922	1
9923	0
9925	0
9929	0
9930	1
9931	0
9932	1
9933	0
9934	1
9935	1
9936	0
9937	0
9938	0
9939	0
9940	0
9942	0
9943	0
9945	1
9946	0
9949	2
9950	3
9953	0
9954	4
9959	2
996	0
9960	0
9963	0
9964	0
9965	0
9966	1
9967	1
9968	0
9969	4
9970	1
9971	0
9973	1
9975	0
9976	0
9978	0
9979	0
9980	4
9981	0
9982	1
9983	0
9984	0
9985	0
9987	0
9988	1
9989	1
999	1
9990	1
9991	0
9994	0
9995	1
9997	1
9999	13
Total number of cars having price less than 70,000 and driven less than 10,000 miles is : 13140
